\contentsline {section}{\numberline {I}Homework}{2}% 
\contentsline {subsection}{\numberline {I}Exercise - Daboni 1}{2}% 
\contentsline {subsection}{\numberline {II}Exercise - Daboni 2}{3}% 
\contentsline {section}{\numberline {II}Homework}{4}% 
\contentsline {subsection}{\numberline {I}Exercise - Committed by FCS}{4}% 
\contentsline {subsection}{\numberline {II}Exercise - 2.7 Hoff}{4}% 
\contentsline {section}{\numberline {III}Homework}{5}% 
\contentsline {subsection}{\numberline {I}Exercise - 3.6 Hoff}{5}% 
\contentsline {subsection}{\numberline {II}Exercise - 3.9 Hoff}{6}% 
\contentsline {section}{\numberline {IV}Homework}{8}% 
\contentsline {subsection}{\numberline {I}Exercise - 5.2 Hoff}{8}% 
\contentsline {subsection}{\numberline {II}Exercise - Committed by FCS}{10}% 
\contentsline {section}{\numberline {V}Homework}{11}% 
\contentsline {subsection}{\numberline {I}Exercise - 7.3 Hoff}{11}% 
\contentsline {section}{\numberline {VI}Homework}{16}% 
\contentsline {subsection}{\numberline {I}Exercise - 8.3 Hoff}{16}% 
\contentsline {section}{\numberline {VII}Homework}{23}% 
\contentsline {subsection}{\numberline {I}Exercise - 9.2 Hoff}{23}% 
\contentsline {section}{\numberline {VIII}Homework}{26}% 
\contentsline {subsection}{\numberline {I}Exercise - 10.2 Hoff}{26}% 
